<?xml version="1.0" encoding="UTF-8"?>
<svg width="24px" height="24px" viewBox="0 0 24 24" version="1.1" xmlns="http://www.w3.org/2000/svg" xmlns:xlink="http://www.w3.org/1999/xlink">
    <!-- Generator: Sketch 52.3 (67297) - http://www.bohemiancoding.com/sketch -->
    <title>Icon / Error / Line</title>
    <desc>Created with Sketch.</desc>
    <g id="Icon-/-Error-/-Line" stroke="none" stroke-width="1" fill="none" fill-rule="evenodd">
        <rect id="BoundingBox" x="0" y="0" width="24" height="24"></rect>
        <path d="M13,14 L12,15 L11,14 L11,9 L13,9 L13,14 Z M11,16 L13,16 L13,18 L11,18 L11,16 Z M12,4.16698394 L3.38418339,19 L20.6158166,19 L12,4.16698394 Z M13.7520221,3.20240189 L22.3678387,18.0354179 C22.9005627,19.003033 22.5480138,20.2192981 21.5803987,20.7520221 C21.2849256,20.9146959 20.9531104,21 20.6158166,21 L3.38418339,21 C2.27961389,21 1.38418339,20.1045695 1.38418339,19 C1.38418339,18.6627063 1.46948754,18.330891 1.63216128,18.0354179 L10.2479779,3.20240189 C11,2.23478679 13,2.23478679 13.7520221,3.20240189 Z" id="Combined-Shape" fill="#001C33"></path>
    </g>
</svg>