<?xml version="1.0" encoding="UTF-8"?>
<svg width="24px" height="24px" viewBox="0 0 24 24" version="1.1" xmlns="http://www.w3.org/2000/svg" xmlns:xlink="http://www.w3.org/1999/xlink">
    <!-- Generator: Sketch 52.3 (67297) - http://www.bohemiancoding.com/sketch -->
    <title>Icon / Secure / Line</title>
    <desc>Created with Sketch.</desc>
    <g id="Icon-/-Secure-/-Line" stroke="none" stroke-width="1" fill="none" fill-rule="evenodd">
        <rect id="BoundingBox" x="0" y="0" width="24" height="24"></rect>
        <path d="M8.25,9 L8,9 L8,8 C8,5.790861 9.790861,4 12,4 C14.209139,4 16,5.790861 16,8 L16,9 L15.75,9 C16.9926407,9 18,10.0073593 18,11.25 L18,17.7546387 C18,18.9972794 16.9926407,20.0046387 15.75,20.0046387 L8.25,20.0046387 C7.00735931,20.0046387 6,18.9972794 6,17.7546387 L6,11.25 C6,10.0073593 7.00735931,9 8.25,9 Z M10,9 L14,9 L14,8 C14,6.8954305 13.1045695,6 12,6 C10.8954305,6 10,6.8954305 10,8 L10,9 Z M15.75,18.0046387 C15.8880712,18.0046387 16,17.8927099 16,17.7546387 L16,11.25 C16,11.1119288 15.8880712,11 15.75,11 L8.25,11 C8.11192881,11 8,11.1119288 8,11.25 L8,17.7546387 C8,17.8927099 8.11192881,18.0046387 8.25,18.0046387 L15.75,18.0046387 Z" id="Secure-Line" fill="#000000" fill-rule="nonzero"></path>
    </g>
</svg>