<?xml version="1.0" encoding="UTF-8"?>
<svg width="90px" height="30px" viewBox="0 0 90 30" version="1.1" xmlns="http://www.w3.org/2000/svg" xmlns:xlink="http://www.w3.org/1999/xlink" style="width:180px;height:90px">
    <!-- Generator: Sketch 56.3 (81716) - https://sketch.com -->
    <title>Logo-White</title>
    <desc>Created with Sketch.</desc>
    <g id="Logo-White" stroke="none" stroke-width="1" fill="none" fill-rule="evenodd">
        <g id="Logo-/-Vemo-/-White">
            <g id="Vemo_logo_Light_Option-A">
                <path d="M9.45935368,0.00853175238 L3.8785635,0 C2.8041995,0 2.45052097,0.234874124 2.05066906,1.52718368 C0.867297826,5.3453938 0.443645211,7.79250113 0.0285608505,9.11943956 C0.0107684537,9.17615706 0.00114118633,9.23536627 0,9.29509329 L0,9.315168 C0.0057121701,9.65342689 0.297508859,9.89833837 0.526947691,9.66647545 L3.36208812,6.81385895 C3.45110277,6.72452648 3.57772254,6.76367217 3.63056011,6.89817274 L5.27471307,11.0666866 C5.44798223,11.5063228 5.92304438,11.417994 6.00349077,10.9306804 C6.19389644,9.76433967 6.34241286,8.57892796 6.53948273,7.375449 C6.54757497,7.32526222 6.55614323,7.27507545 6.56471148,7.22187746 C6.82985138,5.63296404 7.18924208,4.01243296 7.86042207,2.36178981 C8.45401174,0.903362017 9.06902206,0.135002435 9.71925742,0.0100373557 L9.72972973,0.0100373557 L9.45935368,0.00853175238 Z" id="Path" fill="#EBF0F4" opacity="0.8"></path>
                <path d="M45.2167909,27.6198807 C45.2430374,28.6813057 45.9799978,29.4596841 46.992289,29.4596841 C47.9773045,29.4596841 48.4481975,28.9102703 48.793519,28.352264 L49.2999219,28.6135767 C48.8202801,29.5380274 48.0833198,30 47.0535308,30 C45.4910925,30 44.5945946,28.8228291 44.5945946,27.5850053 C44.5945946,26.321404 45.5446148,25.1351351 47.0180209,25.1351351 C48.3560774,25.1351351 49.4419618,26.0853633 49.4594595,27.6198807 L45.2167909,27.6198807 Z M48.7940336,27.0967497 C48.5454639,26.1364128 47.8445281,25.7103264 47.027799,25.7103264 C46.1843087,25.7103264 45.5538782,26.1551141 45.2780327,27.0967497 L48.7940336,27.0967497 Z" id="Shape" fill="#FFFFFF" fill-rule="nonzero"></path>
                <path d="M54.5379725,29.0993222 C54.0288824,29.7057987 53.387938,30 52.658921,30 C51.2976141,30 50.2702703,28.8829387 50.2702703,27.5750983 C50.2702703,26.267258 51.3240867,25.1677684 52.67623,25.1677684 C53.4317197,25.1677684 54.0726641,25.4880763 54.5379725,26.1286922 L54.5379725,23.5135135 L55.1351351,23.5135135 L55.1351351,29.889549 L54.5379725,29.889549 L54.5379725,29.0993222 Z M50.884742,27.5931721 C50.884742,28.5887373 51.6753589,29.4638106 52.7205209,29.4638106 C53.6776102,29.4638106 54.5730997,28.7534098 54.5730997,27.6102418 C54.5730997,26.5448916 53.7743373,25.7396032 52.7291754,25.7396032 C51.6575408,25.7391013 50.884742,26.6051376 50.884742,27.5926701 L50.884742,27.5931721 Z" id="Shape" fill="#FFFFFF" fill-rule="nonzero"></path>
                <path d="M60.1857164,25.1351351 L60.8108108,25.1351351 L60.8108108,27.5945255 C60.8108108,29.1954102 60.1061956,30 58.7880618,30 C57.469928,30 56.7567568,29.1954102 56.7567568,27.5945255 L56.7567568,25.1351351 L57.3828577,25.1351351 L57.3828577,27.4514412 C57.3828577,27.9522361 57.3828577,28.3633442 57.5132115,28.6495127 C57.7301324,29.1326813 58.2077608,29.4100366 58.7890684,29.4100366 C59.214354,29.4100366 59.5878001,29.2488076 59.8308923,28.989597 C60.1957824,28.5873021 60.186723,28.1310914 60.186723,27.4514412 L60.1857164,25.1351351 Z" id="Path" fill="#FFFFFF" fill-rule="nonzero"></path>
                <path d="M66.4864865,28.9538468 C66.0175587,29.6426907 65.210482,30 64.2460539,30 C62.6730618,30 61.6216216,28.9017919 61.6216216,27.6115363 C61.6216216,26.2515372 62.7157864,25.1351351 64.2908626,25.1351351 C65.2078768,25.1351351 66.0436103,25.501036 66.4838813,26.2161601 L65.9894231,26.5123174 C65.5673881,25.9720577 64.9827915,25.7102667 64.263769,25.7102667 C63.0508092,25.7102667 62.2505058,26.5734694 62.2505058,27.5670622 C62.2505058,28.5778382 63.0414306,29.4592348 64.2731475,29.4592348 C64.9650765,29.4592348 65.5402945,29.1888523 65.9894231,28.650614 L66.4864865,28.9538468 Z" id="Path" fill="#FFFFFF" fill-rule="nonzero"></path>
                <path d="M71.5726052,25.2569463 L72.1621622,25.2569463 L72.1621622,29.8867813 L71.5726052,29.8867813 L71.5726052,29.0932397 C71.0626078,29.7038119 70.4205212,30 69.6902049,30 C68.326472,30 67.2972973,28.8753949 67.2972973,27.5587224 C67.2972973,26.2420498 68.3529918,25.1351351 69.7075448,25.1351351 C70.4643809,25.1351351 71.1064676,25.4576062 71.5726052,26.1025483 L71.5726052,25.2569463 Z M67.9128641,27.5764128 C67.9128641,28.5787013 68.70489,29.4596841 69.7519146,29.4596841 C70.7107097,29.4596841 71.616975,28.7444858 71.616975,27.5935978 C71.616975,26.521053 70.8076092,25.7103264 69.7605846,25.7103264 C68.6870401,25.7103264 67.9128641,26.5822113 67.9128641,27.5764128 Z" id="Shape" fill="#FFFFFF" fill-rule="nonzero"></path>
                <polygon id="Path" fill="#FFFFFF" fill-rule="nonzero" points="73.8171119 23.5135135 74.4263917 23.5135135 74.4263917 25.2750524 75.4054054 25.2750524 75.4054054 25.8089302 74.4263917 25.8089302 74.4263917 30 73.8171119 30 73.8171119 25.8089302 72.972973 25.8089302 72.972973 25.2750524 73.8171119 25.2750524"></polygon>
                <path d="M77.3273224,23.9978272 C77.3242393,24.2689595 77.0752293,24.4881694 76.7669285,24.4911564 C76.4606073,24.48731 76.2149445,24.2672408 76.2162212,23.9978272 C76.2160747,23.8693407 76.2740463,23.7460784 76.3773559,23.6552247 C76.4806655,23.5643711 76.6208268,23.513389 76.7669285,23.5135178 C77.0731826,23.5123981 77.3232583,23.7285191 77.3273224,23.9978272 L77.3273224,23.9978272 Z M76.44255,25.4076259 L77.1112601,25.4076259 L77.1112601,30 L76.44255,30 L76.44255,25.4076259 Z" id="Shape" fill="#FFFFFF" fill-rule="nonzero"></path>
                <path d="M83.5135135,27.5794183 C83.5135135,28.8930882 82.4861697,30 81.0810811,30 C79.6759924,30 78.6486486,28.8956096 78.6486486,27.5794183 C78.6486486,26.2571756 79.684647,25.1351351 81.0810811,25.1351351 C82.4775152,25.1351351 83.5135135,26.2571756 83.5135135,27.5794183 Z M79.2631204,27.5879912 C79.2631204,28.5965669 80.0267555,29.423599 81.0810811,29.423599 C82.126243,29.423599 82.8990418,28.5970712 82.8990418,27.5879912 C82.8990418,26.5617655 82.0732977,25.7090147 81.0810811,25.7090147 C80.0797009,25.7090147 79.2631204,26.5617655 79.2631204,27.5879912 L79.2631204,27.5879912 Z" id="Shape" fill="#FFFFFF" fill-rule="nonzero"></path>
                <path d="M84.9191687,26.1080046 C85.3996004,25.4652898 85.9757135,25.1351351 86.6571267,25.1351351 C87.6696277,25.1351351 88.3783784,25.8492627 88.3783784,27.339616 L88.3783784,30 L87.7845465,30 L87.7845465,27.4203434 C87.7845465,26.304131 87.4438399,25.6883253 86.5442328,25.6883253 C86.0465885,25.6883253 85.6360194,25.9113608 85.3216378,26.3310401 C84.972325,26.7967755 84.9201812,27.259406 84.9201812,28.00924 L84.9201812,30 L84.3243243,30 L84.3243243,25.2598487 L84.9181562,25.2598487 L84.9191687,26.1080046 Z" id="Path" fill="#FFFFFF" fill-rule="nonzero"></path>
                <path d="M70.5405405,20.7594562 C70.5418759,20.9351674 70.4025821,21.0789303 70.2289042,21.0810811 L66.3509909,21.0810811 C66.2679128,21.0799224 66.1887086,21.0453514 66.1308729,20.9850041 C66.0730372,20.9246568 66.0413288,20.8434988 66.0427515,20.7594562 L66.0427515,11.9517318 C66.0427515,8.3663731 64.2804155,8.3663731 63.6992608,8.3663731 C61.7665947,8.3663731 60.6560618,10.0126813 60.6560618,12.8838076 L60.6560618,20.7594562 C60.6574845,20.8434988 60.6257761,20.9246568 60.5679404,20.9850041 C60.5101046,21.0453514 60.4309005,21.0799224 60.3478224,21.0810811 L56.4699091,21.0810811 C56.3862823,21.0806989 56.3062824,21.0464855 56.2477425,20.9860674 C56.1892026,20.9256494 56.156989,20.844049 56.1582824,20.7594562 L56.1582824,13.0331159 C56.1582824,9.67490174 55.4779297,8.3663731 53.728175,8.3663731 C51.8409948,8.3663731 50.7135256,10.0797477 50.7135256,12.9425518 L50.7135256,20.7594562 C50.7149483,20.8434988 50.6832399,20.9246568 50.6254042,20.9850041 C50.5675685,21.0453514 50.4883643,21.0799224 50.4052862,21.0810811 L46.5273729,21.0810811 C46.3537718,21.0789303 46.214617,20.9350874 46.2162162,20.7594562 L46.2162162,4.79716909 C46.214617,4.62153788 46.3537718,4.47769501 46.5273729,4.4755442 L50.4052862,4.4755442 C50.4883643,4.47670292 50.5675685,4.51127391 50.6254042,4.57162118 C50.6832399,4.63196845 50.7149483,4.71312644 50.7135256,4.79716909 L50.7135256,5.50503755 C50.7130721,5.56840793 50.7497249,5.62604566 50.8069169,5.65189823 C50.8628982,5.67937339 50.9296704,5.67052056 50.9767631,5.6293796 C52.2000429,4.60135485 53.6768824,4.05405405 55.2432419,4.05405405 C57.1376805,4.05405405 58.6788776,4.89213899 59.6950516,6.48019246 C59.7220186,6.5229379 59.767064,6.55060583 59.8169925,6.5550914 C59.8680974,6.55528636 59.9169896,6.53401222 59.9519984,6.49634713 C61.4128694,4.78297255 62.9085807,4.05405405 64.9506064,4.05405405 C66.7448793,4.05405405 68.382371,4.79472141 69.3322517,6.03863135 L69.3356389,6.03863135 C70.4485913,7.48080321 70.5395631,9.40320949 70.5395631,11.4103054 L70.5405405,20.7594562 Z" id="Path" fill="#FFFFFF"></path>
                <path d="M70.5405405,20.7594562 C70.5418759,20.9351674 70.4025821,21.0789303 70.2289042,21.0810811 L66.3509909,21.0810811 C66.2679128,21.0799224 66.1887086,21.0453514 66.1308729,20.9850041 C66.0730372,20.9246568 66.0413288,20.8434988 66.0427515,20.7594562 L66.0427515,11.9517318 C66.0427515,8.3663731 64.2804155,8.3663731 63.6992608,8.3663731 C61.7665947,8.3663731 60.6560618,10.0126813 60.6560618,12.8838076 L60.6560618,20.7594562 C60.6574845,20.8434988 60.6257761,20.9246568 60.5679404,20.9850041 C60.5101046,21.0453514 60.4309005,21.0799224 60.3478224,21.0810811 L56.4699091,21.0810811 C56.3862823,21.0806989 56.3062824,21.0464855 56.2477425,20.9860674 C56.1892026,20.9256494 56.156989,20.844049 56.1582824,20.7594562 L56.1582824,13.0331159 C56.1582824,9.67490174 55.4779297,8.3663731 53.728175,8.3663731 C51.8409948,8.3663731 50.7135256,10.0797477 50.7135256,12.9425518 L50.7135256,20.7594562 C50.7149483,20.8434988 50.6832399,20.9246568 50.6254042,20.9850041 C50.5675685,21.0453514 50.4883643,21.0799224 50.4052862,21.0810811 L46.5273729,21.0810811 C46.3537718,21.0789303 46.214617,20.9350874 46.2162162,20.7594562 L46.2162162,4.79716909 C46.214617,4.62153788 46.3537718,4.47769501 46.5273729,4.4755442 L50.4052862,4.4755442 C50.4883643,4.47670292 50.5675685,4.51127391 50.6254042,4.57162118 C50.6832399,4.63196845 50.7149483,4.71312644 50.7135256,4.79716909 L50.7135256,5.50503755 C50.7130721,5.56840793 50.7497249,5.62604566 50.8069169,5.65189823 C50.8628982,5.67937339 50.9296704,5.67052056 50.9767631,5.6293796 C52.2000429,4.60135485 53.6768824,4.05405405 55.2432419,4.05405405 C57.1376805,4.05405405 58.6788776,4.89213899 59.6950516,6.48019246 C59.7220186,6.5229379 59.767064,6.55060583 59.8169925,6.5550914 C59.8680974,6.55528636 59.9169896,6.53401222 59.9519984,6.49634713 C61.4128694,4.78297255 62.9085807,4.05405405 64.9506064,4.05405405 C66.7448793,4.05405405 68.382371,4.79472141 69.3322517,6.03863135 L69.3356389,6.03863135 C70.4485913,7.48080321 70.5395631,9.40320949 70.5395631,11.4103054 L70.5405405,20.7594562 Z" id="Path" fill="#FFFFFF" fill-rule="nonzero"></path>
                <path d="M70.5405405,11.4093264 L70.5405405,20.7594562 C70.5418759,20.9351674 70.4025821,21.0789303 70.2289042,21.0810811 L66.3509909,21.0810811 C66.2679128,21.0799224 66.1887086,21.0453514 66.1308729,20.9850041 C66.0730372,20.9246568 66.0413288,20.8434988 66.0427515,20.7594562 L66.0427515,11.9517318 C66.0427515,8.3663731 64.2804155,8.3663731 63.6992608,8.3663731 C61.7665947,8.3663731 60.6560618,10.0126813 60.6560618,12.8838076 L60.6560618,20.7594562 C60.6574845,20.8434988 60.6257761,20.9246568 60.5679404,20.9850041 C60.5101046,21.0453514 60.4309005,21.0799224 60.3478224,21.0810811 L56.4699091,21.0810811 C56.3862823,21.0806989 56.3062824,21.0464855 56.2477425,20.9860674 C56.1892026,20.9256494 56.156989,20.844049 56.1582824,20.7594562 L56.1582824,13.0331159 C56.1582824,9.67490174 55.4779297,8.3663731 53.728175,8.3663731 C51.8409948,8.3663731 50.7135256,10.0797477 50.7135256,12.9425518 L50.7135256,20.7594562 C50.7149483,20.8434988 50.6832399,20.9246568 50.6254042,20.9850041 C50.5675685,21.0453514 50.4883643,21.0799224 50.4052862,21.0810811 L46.5273729,21.0810811 C46.3537718,21.0789303 46.214617,20.9350874 46.2162162,20.7594562 L46.2162162,4.79716909 C46.214617,4.62153788 46.3537718,4.47769501 46.5273729,4.4755442 L50.4052862,4.4755442 C50.4883643,4.47670292 50.5675685,4.51127391 50.6254042,4.57162118 C50.6832399,4.63196845 50.7149483,4.71312644 50.7135256,4.79716909 L50.7135256,5.50503755 C50.7130721,5.56840793 50.7497249,5.62604566 50.8069169,5.65189823 C50.8628982,5.67937339 50.9296704,5.67052056 50.9767631,5.6293796 C52.2000429,4.60135485 53.6768824,4.05405405 55.2432419,4.05405405 C57.1376805,4.05405405 58.6788776,4.89213899 59.6950516,6.48019246 C59.7220186,6.5229379 59.767064,6.55060583 59.8169925,6.5550914 C59.8680974,6.55528636 59.9169896,6.53401222 59.9519984,6.49634713 C61.4128694,4.78297255 62.9085807,4.05405405 64.9506064,4.05405405 C66.7448793,4.05405405 68.382371,4.79472141 69.3322517,6.03863135 L69.3356389,6.03863135 C70.4476236,7.47982414 70.5405405,9.40223042 70.5405405,11.4093264 Z" id="Path" fill="#FFFFFF" fill-rule="nonzero"></path>
                <path d="M80.1945046,21.0810811 C75.233845,21.0810811 71.3513514,17.3495658 71.3513514,12.5822528 C71.3513514,7.87955475 75.3031308,4.05405405 80.1611078,4.05405405 C85.1382165,4.05405405 89.1891892,7.86682756 89.1891892,12.5528823 C89.1891892,17.3368386 85.2374098,21.0810811 80.1945046,21.0810811 Z M80.2239136,8.37346776 C77.8597247,8.37346776 76.1465226,10.13031 76.1465226,12.5528823 C76.1465226,15.0699296 77.7834605,16.7626464 80.2239136,16.7626464 C82.6778251,16.7626464 84.3940179,15.0449648 84.3940179,12.5832318 C84.3940179,10.0652055 82.7177018,8.37395727 80.2239136,8.37395727 L80.2239136,8.37346776 Z" id="Shape" fill="#FFFFFF"></path>
                <path d="M80.1611078,4.05405405 C75.3031308,4.05405405 71.3513514,7.87955475 71.3513514,12.5822528 C71.3513514,17.3495658 75.233845,21.0810811 80.1945046,21.0810811 C85.2374098,21.0810811 89.1891892,17.3368386 89.1891892,12.5528823 C89.1891892,7.86682756 85.1382165,4.05405405 80.1611078,4.05405405 Z M80.2239136,16.7616674 C77.7814667,16.7616674 76.1465226,15.0699296 76.1465226,12.5519033 C76.1465226,10.129331 77.8597247,8.37248875 80.2239136,8.37248875 C82.7162064,8.37248875 84.3940179,10.0642265 84.3940179,12.5822528 C84.3940179,15.0439857 82.6778251,16.7616674 80.2239136,16.7616674 Z" id="Shape" fill="#FFFFFF" fill-rule="nonzero"></path>
                <path d="M44.5786716,13.2734886 C44.5723989,13.4013553 44.5627485,13.526327 44.5627485,13.6961727 C44.5624828,13.8692785 44.422219,14.0095424 44.2491131,14.0098081 L32.2672741,14.0098081 C32.2164886,14.0085584 32.1683964,14.0326046 32.1389248,14.0739827 C32.1072622,14.1136647 32.0976542,14.1665993 32.1133514,14.2148774 C32.6320562,15.9519353 34.1046953,16.9898273 36.0506826,16.9898273 C37.6193423,16.9898273 38.6471015,16.5898215 39.7096019,15.5557896 C39.8042534,15.4641148 39.9454849,15.4399694 40.0652163,15.4949926 L43.3559758,17.0511069 C43.4394728,17.091583 43.5013983,17.1661752 43.5258215,17.2556937 C43.5484518,17.3451182 43.5308219,17.4399674 43.4775699,17.5152873 C41.740512,19.9799794 39.4504908,21.0810811 36.0506826,21.0810811 C31.1372214,21.0810811 27.5675676,17.4926091 27.5675676,12.5530921 C27.5675676,8.43336989 30.5191184,4.05405405 35.9932632,4.05405405 C41.0596819,4.05405405 44.5945946,7.65844909 44.5945946,12.8155808 C44.5945946,12.9950768 44.5849443,13.1292163 44.5786716,13.2734886 Z M36.1341578,8.07100032 C34.5418548,8.07100032 33.3075787,8.84881623 32.5635389,10.3248329 C32.5383656,10.3749132 32.541021,10.434476 32.5705509,10.4821175 C32.6000808,10.5297591 32.6522433,10.5586357 32.7082938,10.5583725 L39.6936789,10.5583725 C39.7481925,10.5579355 39.7988378,10.5301322 39.8284695,10.4843732 C39.8581011,10.4386141 39.8627515,10.3810264 39.8408463,10.3311056 C39.1904146,8.91685099 37.805111,8.07100032 36.1341578,8.07100032 Z" id="Shape" fill="#FFFFFF"></path>
                <path d="M35.9932632,4.05405405 C30.5191184,4.05405405 27.5675676,8.43336989 27.5675676,12.5530921 C27.5675676,17.4926091 31.1381865,21.0810811 36.0506826,21.0810811 C39.4504908,21.0810811 41.739547,19.9799794 43.4775699,17.5152873 C43.5308219,17.4399674 43.5484518,17.3451182 43.5258215,17.2556937 C43.5013983,17.1661752 43.4394728,17.091583 43.3559758,17.0511069 L40.0652163,15.4949926 C39.9454849,15.4399694 39.8042534,15.4641148 39.7096019,15.5557896 C38.6480666,16.5898215 37.6193423,16.9898273 36.0506826,16.9898273 C34.1046953,16.9898273 32.6320562,15.9529003 32.1133514,14.2148774 C32.0976542,14.1665993 32.1072622,14.1136647 32.1389248,14.0739827 C32.1682428,14.0326816 32.216156,14.0086345 32.2667916,14.0098081 L44.2491131,14.0098081 C44.422219,14.0095424 44.5624828,13.8692785 44.5627485,13.6961727 C44.5627485,13.526327 44.5723989,13.4013553 44.5786716,13.2734886 C44.5849443,13.1287338 44.5945946,12.9950768 44.5945946,12.8155808 C44.5945946,7.65844909 41.0572693,4.05405405 35.9932632,4.05405405 Z M39.8283009,10.4835807 C39.7987233,10.5292903 39.7481221,10.5570393 39.6936789,10.5574074 L32.7087763,10.5574074 C32.6527258,10.5576707 32.6005633,10.528794 32.5710334,10.4811525 C32.5415036,10.433511 32.5388482,10.3739481 32.5640215,10.3238678 C33.3070962,8.8478512 34.5423373,8.07003529 36.1346404,8.07003529 C37.8055935,8.07003529 39.1918622,8.91540344 39.8413288,10.3301406 C39.8631933,10.3802027 39.8582927,10.4379214 39.8283009,10.4835807 L39.8283009,10.4835807 Z" id="Shape" fill="#FFFFFF" fill-rule="nonzero"></path>
                <path d="M30,0.9265698 C30,1.05569206 29.9729534,1.18339517 29.9204868,1.30147956 L21.4775879,20.2974052 C21.298027,20.7005612 20.9338532,20.9924763 20.499926,21.0810811 L20.499926,21.0810811 C19.7384665,20.9698861 18.9676721,20.2572422 18.1875428,18.9431495 C17.80848,18.3038611 17.1513712,16.7152661 16.2162162,14.1773643 L16.2162162,14.1773643 L21.4670862,2.06075895 C22.0094286,0.810451835 23.2461839,0.000589307296 24.6141076,0 L29.0693458,0 C29.5833319,0 30,0.41483943 30,0.9265698 L30,0.9265698 Z" id="Path" fill="#EBF0F4" opacity="0.8"></path>
                <path d="M21.1068938,21.099985 L21.1998197,21.0644294 C21.1216794,21.1018415 21.0421899,21.1230408 20.9623424,21.1277628 L21.1068938,21.099985 Z" id="Path" fill="#1C79C4"></path>
                <path d="M21.0810811,21.0557658 L21.0719669,21.0557658 L20.991858,21.0689103 L20.991858,21.0689103 L20.8513076,21.0810811 L20.8095743,21.0810811 L15.2772631,21.0781601 C13.2635422,21.08152 11.4716518,19.7820755 10.8223448,17.8475392 L8.91891892,12.1847028 L8.91891892,12.1847028 C9.10408081,10.8449395 9.30651169,9.58826241 9.52621155,8.41467137 C10.4609753,3.41652369 11.640383,1.55033218 13.0644346,2.81609685 C13.0581986,2.7898079 15.9857712,11.5732411 16.9720221,14.3053454 L16.9720221,14.3053454 C17.8674509,16.7872178 18.4977689,18.3405383 18.8629759,18.9653067 C19.610659,20.2502202 20.3500274,20.9470398 21.0810811,21.0557658 Z" id="Path" fill="#FFFFFF"></path>
            </g>
        </g>
    </g>
</svg>


