<?xml version="1.0" encoding="UTF-8"?>
<svg width="24px" height="24px" viewBox="0 0 24 24" version="1.1" xmlns="http://www.w3.org/2000/svg" xmlns:xlink="http://www.w3.org/1999/xlink">
    <!-- Generator: Sketch 52.3 (67297) - http://www.bohemiancoding.com/sketch -->
    <title>Icon / Visible / Line</title>
    <desc>Created with Sketch.</desc>
    <g id="Icon-/-Visible-/-Line" stroke="none" stroke-width="1" fill="none" fill-rule="evenodd">
        <rect id="BoundingBox" x="0" y="0" width="24" height="24"></rect>
        <path d="M12,9.06352938 C13.6568542,9.06352938 15,10.4066751 15,12.0635294 C15,13.7203836 13.6568542,15.0635294 12,15.0635294 C10.3431458,15.0635294 9,13.7203836 9,12.0635294 C9,10.4066751 10.3431458,9.06352938 12,9.06352938 Z M12,13.0635294 C12.5522847,13.0635294 13,12.6158141 13,12.0635294 C13,11.5112446 12.5522847,11.0635294 12,11.0635294 C11.4477153,11.0635294 11,11.5112446 11,12.0635294 C11,12.6158141 11.4477153,13.0635294 12,13.0635294 Z M12,7.06352938 C8.65319634,7.06352938 5.82255953,8.67298123 3.40293511,12.0635294 C5.82255953,15.4540775 8.65319634,17.0635294 12,17.0635294 C15.3468037,17.0635294 18.1774405,15.4540775 20.5970649,12.0635294 C18.1774405,8.67298123 15.3468037,7.06352938 12,7.06352938 Z M12,19.0635294 C7.581722,19.0635294 3.91505533,16.730196 1,12.0635294 C3.91505533,7.39686272 7.581722,5.06352938 12,5.06352938 C16.418278,5.06352938 20.0849447,7.39686272 23,12.0635294 C20.0849447,16.730196 16.418278,19.0635294 12,19.0635294 Z" id="Combined-Shape" fill="#001C33"></path>
    </g>
</svg>